22-23  Defensive_Idle
11-20  Defensive_Left
33-42  Defensive_Right
53-71  Defensive_Backward
73-102  Block_Reaction
105-119  Flinch
121-153  Lose_1
153-232  Lose_2
235-253  loop Offensive_Idle
254-278  IdleToDribble
279-293  loop Dribble
295-309  Dribble_Left
310-324  Dribble_Right
325-359  Dribble_Forward
361-413  Shoot
415-513  Taunt
513-580  Win
690-691  Dunk_WaitInPosition
691-740  Dunk_RunIntoPlace
741-746  Dunk_AirTime
846-900  Dunk_Failed
746-787  Dunk_Success
361-366  FakeShoot
340-359  Dribble_Forward_End
651-661  Dr_HandReset1
669-686  Dr_HandReset2
662-669  Dr_MoveR_Initial1
611-621  Dr_MoveR_Initial2
622-640  Dr_MoveR_Chained
641-650  Dr_MoveL_Initial1
581-593  Dr_MoveL_Initial2
594-610  Dr_MoveL_Chained