22-23  Defensive_Idle
11-20  Defensive_Left
33-42  Defensive_Right
54-70  Defensive_Backward
73-102  Block Reaction
105-119  Flinch
121-153  Lose_1
153-232  Lose_2
235-253  loop Offensive_Idle
254-278  IdleToDribble
279-293  loop Dribble
295-309  Dribble_Left
310-324  Dribble_Right
325-338  Dribble_Forward
361-413  Shoot
415-513  Taunt
513-580  Win
339-359  Dribble_Forward_End
361-366  FakeShoot